…
**Cast**

``` r
cast |> 
  count(actor_href, sort = TRUE)
#> # A tibble: 461,214 × 2
#>    actor_href                   n
#>    <fct>                    <int>
#>  1 /actor/mel-blanc/          738
#>  2 /actor/bess-flowers/       404
#>  3 /actor/frank-welker/       277
#>  4 /actor/pinto-colvig/       201
#>  5 /actor/clarence-nash/      199
#>  6 /actor/christopher-lee/    186
#>  7 /actor/john-carradine/     178
#>  8 /actor/billy-bletcher/     169
#>  9 /actor/danny-trejo/        165
#> 10 /actor/samuel-l-jackson/   164
#> # … with 461,204 more rows
```
…
